^C:\USERS\USER-PCC\GITREPOS\SHOOTING SLIMES\SHOOTING SLIMES\MAIN.CPP
/c /I"C:\USERS\USER-PCC\GITREPOS\SHOOTING SLIMES\PACKAGES\SFML-AUDIO.2.4.2.0\BUILD\NATIVE\../..//BUILD/NATIVE/INCLUDE/" /I"C:\USERS\USER-PCC\GITREPOS\SHOOTING SLIMES\PACKAGES\SFML-GRAPHICS.2.4.2.0\BUILD\NATIVE\../..//BUILD/NATIVE/INCLUDE/" /I"C:\USERS\USER-PCC\GITREPOS\SHOOTING SLIMES\PACKAGES\SFML-WINDOW.2.4.2.0\BUILD\NATIVE\../..//BUILD/NATIVE/INCLUDE/" /I"C:\USERS\USER-PCC\GITREPOS\SHOOTING SLIMES\PACKAGES\SFML-SYSTEM.2.4.2.0\BUILD\NATIVE\../..//BUILD/NATIVE/INCLUDE/" /I"TMX-PARSER\INCLUDE" /Zi /nologo /W3 /WX- /sdl /O2 /Oi /Oy- /GL /D HAS_SFML /D HAS_SFML /D HAS_SFML /D HAS_SFML /D _MBCS /Gm- /EHsc /MD /GS /Gy /fp:precise /Zc:wchar_t /Zc:forScope /Zc:inline /Fo"RELEASE\\" /Fd"RELEASE\VC140.PDB" /Gd /TP /analyze- C:\USERS\USER-PCC\GITREPOS\SHOOTING SLIMES\SHOOTING SLIMES\MAIN.CPP
^C:\USERS\USER-PCC\GITREPOS\SHOOTING SLIMES\SHOOTING SLIMES\WEAPONPROPERTIES.CPP
/c /I"C:\USERS\USER-PCC\GITREPOS\SHOOTING SLIMES\PACKAGES\SFML-AUDIO.2.4.2.0\BUILD\NATIVE\../..//BUILD/NATIVE/INCLUDE/" /I"C:\USERS\USER-PCC\GITREPOS\SHOOTING SLIMES\PACKAGES\SFML-GRAPHICS.2.4.2.0\BUILD\NATIVE\../..//BUILD/NATIVE/INCLUDE/" /I"C:\USERS\USER-PCC\GITREPOS\SHOOTING SLIMES\PACKAGES\SFML-WINDOW.2.4.2.0\BUILD\NATIVE\../..//BUILD/NATIVE/INCLUDE/" /I"C:\USERS\USER-PCC\GITREPOS\SHOOTING SLIMES\PACKAGES\SFML-SYSTEM.2.4.2.0\BUILD\NATIVE\../..//BUILD/NATIVE/INCLUDE/" /I"TMX-PARSER\INCLUDE" /Zi /nologo /W3 /WX- /sdl /O2 /Oi /Oy- /GL /D HAS_SFML /D HAS_SFML /D HAS_SFML /D HAS_SFML /D _MBCS /Gm- /EHsc /MD /GS /Gy /fp:precise /Zc:wchar_t /Zc:forScope /Zc:inline /Fo"RELEASE\\" /Fd"RELEASE\VC140.PDB" /Gd /TP /analyze- C:\USERS\USER-PCC\GITREPOS\SHOOTING SLIMES\SHOOTING SLIMES\WEAPONPROPERTIES.CPP
^C:\USERS\USER-PCC\GITREPOS\SHOOTING SLIMES\SHOOTING SLIMES\AUDIOMANAGER.CPP
/c /I"C:\USERS\USER-PCC\GITREPOS\SHOOTING SLIMES\PACKAGES\SFML-AUDIO.2.4.2.0\BUILD\NATIVE\../..//BUILD/NATIVE/INCLUDE/" /I"C:\USERS\USER-PCC\GITREPOS\SHOOTING SLIMES\PACKAGES\SFML-GRAPHICS.2.4.2.0\BUILD\NATIVE\../..//BUILD/NATIVE/INCLUDE/" /I"C:\USERS\USER-PCC\GITREPOS\SHOOTING SLIMES\PACKAGES\SFML-WINDOW.2.4.2.0\BUILD\NATIVE\../..//BUILD/NATIVE/INCLUDE/" /I"C:\USERS\USER-PCC\GITREPOS\SHOOTING SLIMES\PACKAGES\SFML-SYSTEM.2.4.2.0\BUILD\NATIVE\../..//BUILD/NATIVE/INCLUDE/" /I"TMX-PARSER\INCLUDE" /Zi /nologo /W3 /WX- /sdl /O2 /Oi /Oy- /GL /D HAS_SFML /D HAS_SFML /D HAS_SFML /D HAS_SFML /D _MBCS /Gm- /EHsc /MD /GS /Gy /fp:precise /Zc:wchar_t /Zc:forScope /Zc:inline /Fo"RELEASE\\" /Fd"RELEASE\VC140.PDB" /Gd /TP /analyze- C:\USERS\USER-PCC\GITREPOS\SHOOTING SLIMES\SHOOTING SLIMES\AUDIOMANAGER.CPP
^C:\USERS\USER-PCC\GITREPOS\SHOOTING SLIMES\SHOOTING SLIMES\CHARACTER.CPP
/c /I"C:\USERS\USER-PCC\GITREPOS\SHOOTING SLIMES\PACKAGES\SFML-AUDIO.2.4.2.0\BUILD\NATIVE\../..//BUILD/NATIVE/INCLUDE/" /I"C:\USERS\USER-PCC\GITREPOS\SHOOTING SLIMES\PACKAGES\SFML-GRAPHICS.2.4.2.0\BUILD\NATIVE\../..//BUILD/NATIVE/INCLUDE/" /I"C:\USERS\USER-PCC\GITREPOS\SHOOTING SLIMES\PACKAGES\SFML-WINDOW.2.4.2.0\BUILD\NATIVE\../..//BUILD/NATIVE/INCLUDE/" /I"C:\USERS\USER-PCC\GITREPOS\SHOOTING SLIMES\PACKAGES\SFML-SYSTEM.2.4.2.0\BUILD\NATIVE\../..//BUILD/NATIVE/INCLUDE/" /I"TMX-PARSER\INCLUDE" /Zi /nologo /W3 /WX- /sdl /O2 /Oi /Oy- /GL /D HAS_SFML /D HAS_SFML /D HAS_SFML /D HAS_SFML /D _MBCS /Gm- /EHsc /MD /GS /Gy /fp:precise /Zc:wchar_t /Zc:forScope /Zc:inline /Fo"RELEASE\\" /Fd"RELEASE\VC140.PDB" /Gd /TP /analyze- C:\USERS\USER-PCC\GITREPOS\SHOOTING SLIMES\SHOOTING SLIMES\CHARACTER.CPP
^C:\USERS\USER-PCC\GITREPOS\SHOOTING SLIMES\SHOOTING SLIMES\COLLIDER.CPP
/c /I"C:\USERS\USER-PCC\GITREPOS\SHOOTING SLIMES\PACKAGES\SFML-AUDIO.2.4.2.0\BUILD\NATIVE\../..//BUILD/NATIVE/INCLUDE/" /I"C:\USERS\USER-PCC\GITREPOS\SHOOTING SLIMES\PACKAGES\SFML-GRAPHICS.2.4.2.0\BUILD\NATIVE\../..//BUILD/NATIVE/INCLUDE/" /I"C:\USERS\USER-PCC\GITREPOS\SHOOTING SLIMES\PACKAGES\SFML-WINDOW.2.4.2.0\BUILD\NATIVE\../..//BUILD/NATIVE/INCLUDE/" /I"C:\USERS\USER-PCC\GITREPOS\SHOOTING SLIMES\PACKAGES\SFML-SYSTEM.2.4.2.0\BUILD\NATIVE\../..//BUILD/NATIVE/INCLUDE/" /I"TMX-PARSER\INCLUDE" /Zi /nologo /W3 /WX- /sdl /O2 /Oi /Oy- /GL /D HAS_SFML /D HAS_SFML /D HAS_SFML /D HAS_SFML /D _MBCS /Gm- /EHsc /MD /GS /Gy /fp:precise /Zc:wchar_t /Zc:forScope /Zc:inline /Fo"RELEASE\\" /Fd"RELEASE\VC140.PDB" /Gd /TP /analyze- C:\USERS\USER-PCC\GITREPOS\SHOOTING SLIMES\SHOOTING SLIMES\COLLIDER.CPP
^C:\USERS\USER-PCC\GITREPOS\SHOOTING SLIMES\SHOOTING SLIMES\COLLISIONPROPERTIES.CPP
/c /I"C:\USERS\USER-PCC\GITREPOS\SHOOTING SLIMES\PACKAGES\SFML-AUDIO.2.4.2.0\BUILD\NATIVE\../..//BUILD/NATIVE/INCLUDE/" /I"C:\USERS\USER-PCC\GITREPOS\SHOOTING SLIMES\PACKAGES\SFML-GRAPHICS.2.4.2.0\BUILD\NATIVE\../..//BUILD/NATIVE/INCLUDE/" /I"C:\USERS\USER-PCC\GITREPOS\SHOOTING SLIMES\PACKAGES\SFML-WINDOW.2.4.2.0\BUILD\NATIVE\../..//BUILD/NATIVE/INCLUDE/" /I"C:\USERS\USER-PCC\GITREPOS\SHOOTING SLIMES\PACKAGES\SFML-SYSTEM.2.4.2.0\BUILD\NATIVE\../..//BUILD/NATIVE/INCLUDE/" /I"TMX-PARSER\INCLUDE" /Zi /nologo /W3 /WX- /sdl /O2 /Oi /Oy- /GL /D HAS_SFML /D HAS_SFML /D HAS_SFML /D HAS_SFML /D _MBCS /Gm- /EHsc /MD /GS /Gy /fp:precise /Zc:wchar_t /Zc:forScope /Zc:inline /Fo"RELEASE\\" /Fd"RELEASE\VC140.PDB" /Gd /TP /analyze- C:\USERS\USER-PCC\GITREPOS\SHOOTING SLIMES\SHOOTING SLIMES\COLLISIONPROPERTIES.CPP
^C:\USERS\USER-PCC\GITREPOS\SHOOTING SLIMES\SHOOTING SLIMES\ENEMY.CPP
/c /I"C:\USERS\USER-PCC\GITREPOS\SHOOTING SLIMES\PACKAGES\SFML-AUDIO.2.4.2.0\BUILD\NATIVE\../..//BUILD/NATIVE/INCLUDE/" /I"C:\USERS\USER-PCC\GITREPOS\SHOOTING SLIMES\PACKAGES\SFML-GRAPHICS.2.4.2.0\BUILD\NATIVE\../..//BUILD/NATIVE/INCLUDE/" /I"C:\USERS\USER-PCC\GITREPOS\SHOOTING SLIMES\PACKAGES\SFML-WINDOW.2.4.2.0\BUILD\NATIVE\../..//BUILD/NATIVE/INCLUDE/" /I"C:\USERS\USER-PCC\GITREPOS\SHOOTING SLIMES\PACKAGES\SFML-SYSTEM.2.4.2.0\BUILD\NATIVE\../..//BUILD/NATIVE/INCLUDE/" /I"TMX-PARSER\INCLUDE" /Zi /nologo /W3 /WX- /sdl /O2 /Oi /Oy- /GL /D HAS_SFML /D HAS_SFML /D HAS_SFML /D HAS_SFML /D _MBCS /Gm- /EHsc /MD /GS /Gy /fp:precise /Zc:wchar_t /Zc:forScope /Zc:inline /Fo"RELEASE\\" /Fd"RELEASE\VC140.PDB" /Gd /TP /analyze- C:\USERS\USER-PCC\GITREPOS\SHOOTING SLIMES\SHOOTING SLIMES\ENEMY.CPP
^C:\USERS\USER-PCC\GITREPOS\SHOOTING SLIMES\SHOOTING SLIMES\ENGINE.CPP
/c /I"C:\USERS\USER-PCC\GITREPOS\SHOOTING SLIMES\PACKAGES\SFML-AUDIO.2.4.2.0\BUILD\NATIVE\../..//BUILD/NATIVE/INCLUDE/" /I"C:\USERS\USER-PCC\GITREPOS\SHOOTING SLIMES\PACKAGES\SFML-GRAPHICS.2.4.2.0\BUILD\NATIVE\../..//BUILD/NATIVE/INCLUDE/" /I"C:\USERS\USER-PCC\GITREPOS\SHOOTING SLIMES\PACKAGES\SFML-WINDOW.2.4.2.0\BUILD\NATIVE\../..//BUILD/NATIVE/INCLUDE/" /I"C:\USERS\USER-PCC\GITREPOS\SHOOTING SLIMES\PACKAGES\SFML-SYSTEM.2.4.2.0\BUILD\NATIVE\../..//BUILD/NATIVE/INCLUDE/" /I"TMX-PARSER\INCLUDE" /Zi /nologo /W3 /WX- /sdl /O2 /Oi /Oy- /GL /D HAS_SFML /D HAS_SFML /D HAS_SFML /D HAS_SFML /D _MBCS /Gm- /EHsc /MD /GS /Gy /fp:precise /Zc:wchar_t /Zc:forScope /Zc:inline /Fo"RELEASE\\" /Fd"RELEASE\VC140.PDB" /Gd /TP /analyze- C:\USERS\USER-PCC\GITREPOS\SHOOTING SLIMES\SHOOTING SLIMES\ENGINE.CPP
^C:\USERS\USER-PCC\GITREPOS\SHOOTING SLIMES\SHOOTING SLIMES\ENTITY.CPP
/c /I"C:\USERS\USER-PCC\GITREPOS\SHOOTING SLIMES\PACKAGES\SFML-AUDIO.2.4.2.0\BUILD\NATIVE\../..//BUILD/NATIVE/INCLUDE/" /I"C:\USERS\USER-PCC\GITREPOS\SHOOTING SLIMES\PACKAGES\SFML-GRAPHICS.2.4.2.0\BUILD\NATIVE\../..//BUILD/NATIVE/INCLUDE/" /I"C:\USERS\USER-PCC\GITREPOS\SHOOTING SLIMES\PACKAGES\SFML-WINDOW.2.4.2.0\BUILD\NATIVE\../..//BUILD/NATIVE/INCLUDE/" /I"C:\USERS\USER-PCC\GITREPOS\SHOOTING SLIMES\PACKAGES\SFML-SYSTEM.2.4.2.0\BUILD\NATIVE\../..//BUILD/NATIVE/INCLUDE/" /I"TMX-PARSER\INCLUDE" /Zi /nologo /W3 /WX- /sdl /O2 /Oi /Oy- /GL /D HAS_SFML /D HAS_SFML /D HAS_SFML /D HAS_SFML /D _MBCS /Gm- /EHsc /MD /GS /Gy /fp:precise /Zc:wchar_t /Zc:forScope /Zc:inline /Fo"RELEASE\\" /Fd"RELEASE\VC140.PDB" /Gd /TP /analyze- C:\USERS\USER-PCC\GITREPOS\SHOOTING SLIMES\SHOOTING SLIMES\ENTITY.CPP
^C:\USERS\USER-PCC\GITREPOS\SHOOTING SLIMES\SHOOTING SLIMES\ENTITYMANAGER.CPP
/c /I"C:\USERS\USER-PCC\GITREPOS\SHOOTING SLIMES\PACKAGES\SFML-AUDIO.2.4.2.0\BUILD\NATIVE\../..//BUILD/NATIVE/INCLUDE/" /I"C:\USERS\USER-PCC\GITREPOS\SHOOTING SLIMES\PACKAGES\SFML-GRAPHICS.2.4.2.0\BUILD\NATIVE\../..//BUILD/NATIVE/INCLUDE/" /I"C:\USERS\USER-PCC\GITREPOS\SHOOTING SLIMES\PACKAGES\SFML-WINDOW.2.4.2.0\BUILD\NATIVE\../..//BUILD/NATIVE/INCLUDE/" /I"C:\USERS\USER-PCC\GITREPOS\SHOOTING SLIMES\PACKAGES\SFML-SYSTEM.2.4.2.0\BUILD\NATIVE\../..//BUILD/NATIVE/INCLUDE/" /I"TMX-PARSER\INCLUDE" /Zi /nologo /W3 /WX- /sdl /O2 /Oi /Oy- /GL /D HAS_SFML /D HAS_SFML /D HAS_SFML /D HAS_SFML /D _MBCS /Gm- /EHsc /MD /GS /Gy /fp:precise /Zc:wchar_t /Zc:forScope /Zc:inline /Fo"RELEASE\\" /Fd"RELEASE\VC140.PDB" /Gd /TP /analyze- C:\USERS\USER-PCC\GITREPOS\SHOOTING SLIMES\SHOOTING SLIMES\ENTITYMANAGER.CPP
^C:\USERS\USER-PCC\GITREPOS\SHOOTING SLIMES\SHOOTING SLIMES\FONTMANAGER.CPP
/c /I"C:\USERS\USER-PCC\GITREPOS\SHOOTING SLIMES\PACKAGES\SFML-AUDIO.2.4.2.0\BUILD\NATIVE\../..//BUILD/NATIVE/INCLUDE/" /I"C:\USERS\USER-PCC\GITREPOS\SHOOTING SLIMES\PACKAGES\SFML-GRAPHICS.2.4.2.0\BUILD\NATIVE\../..//BUILD/NATIVE/INCLUDE/" /I"C:\USERS\USER-PCC\GITREPOS\SHOOTING SLIMES\PACKAGES\SFML-WINDOW.2.4.2.0\BUILD\NATIVE\../..//BUILD/NATIVE/INCLUDE/" /I"C:\USERS\USER-PCC\GITREPOS\SHOOTING SLIMES\PACKAGES\SFML-SYSTEM.2.4.2.0\BUILD\NATIVE\../..//BUILD/NATIVE/INCLUDE/" /I"TMX-PARSER\INCLUDE" /Zi /nologo /W3 /WX- /sdl /O2 /Oi /Oy- /GL /D HAS_SFML /D HAS_SFML /D HAS_SFML /D HAS_SFML /D _MBCS /Gm- /EHsc /MD /GS /Gy /fp:precise /Zc:wchar_t /Zc:forScope /Zc:inline /Fo"RELEASE\\" /Fd"RELEASE\VC140.PDB" /Gd /TP /analyze- C:\USERS\USER-PCC\GITREPOS\SHOOTING SLIMES\SHOOTING SLIMES\FONTMANAGER.CPP
^C:\USERS\USER-PCC\GITREPOS\SHOOTING SLIMES\SHOOTING SLIMES\GAME.CPP
/c /I"C:\USERS\USER-PCC\GITREPOS\SHOOTING SLIMES\PACKAGES\SFML-AUDIO.2.4.2.0\BUILD\NATIVE\../..//BUILD/NATIVE/INCLUDE/" /I"C:\USERS\USER-PCC\GITREPOS\SHOOTING SLIMES\PACKAGES\SFML-GRAPHICS.2.4.2.0\BUILD\NATIVE\../..//BUILD/NATIVE/INCLUDE/" /I"C:\USERS\USER-PCC\GITREPOS\SHOOTING SLIMES\PACKAGES\SFML-WINDOW.2.4.2.0\BUILD\NATIVE\../..//BUILD/NATIVE/INCLUDE/" /I"C:\USERS\USER-PCC\GITREPOS\SHOOTING SLIMES\PACKAGES\SFML-SYSTEM.2.4.2.0\BUILD\NATIVE\../..//BUILD/NATIVE/INCLUDE/" /I"TMX-PARSER\INCLUDE" /Zi /nologo /W3 /WX- /sdl /O2 /Oi /Oy- /GL /D HAS_SFML /D HAS_SFML /D HAS_SFML /D HAS_SFML /D _MBCS /Gm- /EHsc /MD /GS /Gy /fp:precise /Zc:wchar_t /Zc:forScope /Zc:inline /Fo"RELEASE\\" /Fd"RELEASE\VC140.PDB" /Gd /TP /analyze- C:\USERS\USER-PCC\GITREPOS\SHOOTING SLIMES\SHOOTING SLIMES\GAME.CPP
^C:\USERS\USER-PCC\GITREPOS\SHOOTING SLIMES\SHOOTING SLIMES\MENU.CPP
/c /I"C:\USERS\USER-PCC\GITREPOS\SHOOTING SLIMES\PACKAGES\SFML-AUDIO.2.4.2.0\BUILD\NATIVE\../..//BUILD/NATIVE/INCLUDE/" /I"C:\USERS\USER-PCC\GITREPOS\SHOOTING SLIMES\PACKAGES\SFML-GRAPHICS.2.4.2.0\BUILD\NATIVE\../..//BUILD/NATIVE/INCLUDE/" /I"C:\USERS\USER-PCC\GITREPOS\SHOOTING SLIMES\PACKAGES\SFML-WINDOW.2.4.2.0\BUILD\NATIVE\../..//BUILD/NATIVE/INCLUDE/" /I"C:\USERS\USER-PCC\GITREPOS\SHOOTING SLIMES\PACKAGES\SFML-SYSTEM.2.4.2.0\BUILD\NATIVE\../..//BUILD/NATIVE/INCLUDE/" /I"TMX-PARSER\INCLUDE" /Zi /nologo /W3 /WX- /sdl /O2 /Oi /Oy- /GL /D HAS_SFML /D HAS_SFML /D HAS_SFML /D HAS_SFML /D _MBCS /Gm- /EHsc /MD /GS /Gy /fp:precise /Zc:wchar_t /Zc:forScope /Zc:inline /Fo"RELEASE\\" /Fd"RELEASE\VC140.PDB" /Gd /TP /analyze- C:\USERS\USER-PCC\GITREPOS\SHOOTING SLIMES\SHOOTING SLIMES\MENU.CPP
^C:\USERS\USER-PCC\GITREPOS\SHOOTING SLIMES\SHOOTING SLIMES\PLAYER.CPP
/c /I"C:\USERS\USER-PCC\GITREPOS\SHOOTING SLIMES\PACKAGES\SFML-AUDIO.2.4.2.0\BUILD\NATIVE\../..//BUILD/NATIVE/INCLUDE/" /I"C:\USERS\USER-PCC\GITREPOS\SHOOTING SLIMES\PACKAGES\SFML-GRAPHICS.2.4.2.0\BUILD\NATIVE\../..//BUILD/NATIVE/INCLUDE/" /I"C:\USERS\USER-PCC\GITREPOS\SHOOTING SLIMES\PACKAGES\SFML-WINDOW.2.4.2.0\BUILD\NATIVE\../..//BUILD/NATIVE/INCLUDE/" /I"C:\USERS\USER-PCC\GITREPOS\SHOOTING SLIMES\PACKAGES\SFML-SYSTEM.2.4.2.0\BUILD\NATIVE\../..//BUILD/NATIVE/INCLUDE/" /I"TMX-PARSER\INCLUDE" /Zi /nologo /W3 /WX- /sdl /O2 /Oi /Oy- /GL /D HAS_SFML /D HAS_SFML /D HAS_SFML /D HAS_SFML /D _MBCS /Gm- /EHsc /MD /GS /Gy /fp:precise /Zc:wchar_t /Zc:forScope /Zc:inline /Fo"RELEASE\\" /Fd"RELEASE\VC140.PDB" /Gd /TP /analyze- C:\USERS\USER-PCC\GITREPOS\SHOOTING SLIMES\SHOOTING SLIMES\PLAYER.CPP
^C:\USERS\USER-PCC\GITREPOS\SHOOTING SLIMES\SHOOTING SLIMES\PROJECTILE.CPP
/c /I"C:\USERS\USER-PCC\GITREPOS\SHOOTING SLIMES\PACKAGES\SFML-AUDIO.2.4.2.0\BUILD\NATIVE\../..//BUILD/NATIVE/INCLUDE/" /I"C:\USERS\USER-PCC\GITREPOS\SHOOTING SLIMES\PACKAGES\SFML-GRAPHICS.2.4.2.0\BUILD\NATIVE\../..//BUILD/NATIVE/INCLUDE/" /I"C:\USERS\USER-PCC\GITREPOS\SHOOTING SLIMES\PACKAGES\SFML-WINDOW.2.4.2.0\BUILD\NATIVE\../..//BUILD/NATIVE/INCLUDE/" /I"C:\USERS\USER-PCC\GITREPOS\SHOOTING SLIMES\PACKAGES\SFML-SYSTEM.2.4.2.0\BUILD\NATIVE\../..//BUILD/NATIVE/INCLUDE/" /I"TMX-PARSER\INCLUDE" /Zi /nologo /W3 /WX- /sdl /O2 /Oi /Oy- /GL /D HAS_SFML /D HAS_SFML /D HAS_SFML /D HAS_SFML /D _MBCS /Gm- /EHsc /MD /GS /Gy /fp:precise /Zc:wchar_t /Zc:forScope /Zc:inline /Fo"RELEASE\\" /Fd"RELEASE\VC140.PDB" /Gd /TP /analyze- C:\USERS\USER-PCC\GITREPOS\SHOOTING SLIMES\SHOOTING SLIMES\PROJECTILE.CPP
^C:\USERS\USER-PCC\GITREPOS\SHOOTING SLIMES\SHOOTING SLIMES\QUADTREE.CPP
/c /I"C:\USERS\USER-PCC\GITREPOS\SHOOTING SLIMES\PACKAGES\SFML-AUDIO.2.4.2.0\BUILD\NATIVE\../..//BUILD/NATIVE/INCLUDE/" /I"C:\USERS\USER-PCC\GITREPOS\SHOOTING SLIMES\PACKAGES\SFML-GRAPHICS.2.4.2.0\BUILD\NATIVE\../..//BUILD/NATIVE/INCLUDE/" /I"C:\USERS\USER-PCC\GITREPOS\SHOOTING SLIMES\PACKAGES\SFML-WINDOW.2.4.2.0\BUILD\NATIVE\../..//BUILD/NATIVE/INCLUDE/" /I"C:\USERS\USER-PCC\GITREPOS\SHOOTING SLIMES\PACKAGES\SFML-SYSTEM.2.4.2.0\BUILD\NATIVE\../..//BUILD/NATIVE/INCLUDE/" /I"TMX-PARSER\INCLUDE" /Zi /nologo /W3 /WX- /sdl /O2 /Oi /Oy- /GL /D HAS_SFML /D HAS_SFML /D HAS_SFML /D HAS_SFML /D _MBCS /Gm- /EHsc /MD /GS /Gy /fp:precise /Zc:wchar_t /Zc:forScope /Zc:inline /Fo"RELEASE\\" /Fd"RELEASE\VC140.PDB" /Gd /TP /analyze- C:\USERS\USER-PCC\GITREPOS\SHOOTING SLIMES\SHOOTING SLIMES\QUADTREE.CPP
^C:\USERS\USER-PCC\GITREPOS\SHOOTING SLIMES\SHOOTING SLIMES\TERRAIN.CPP
/c /I"C:\USERS\USER-PCC\GITREPOS\SHOOTING SLIMES\PACKAGES\SFML-AUDIO.2.4.2.0\BUILD\NATIVE\../..//BUILD/NATIVE/INCLUDE/" /I"C:\USERS\USER-PCC\GITREPOS\SHOOTING SLIMES\PACKAGES\SFML-GRAPHICS.2.4.2.0\BUILD\NATIVE\../..//BUILD/NATIVE/INCLUDE/" /I"C:\USERS\USER-PCC\GITREPOS\SHOOTING SLIMES\PACKAGES\SFML-WINDOW.2.4.2.0\BUILD\NATIVE\../..//BUILD/NATIVE/INCLUDE/" /I"C:\USERS\USER-PCC\GITREPOS\SHOOTING SLIMES\PACKAGES\SFML-SYSTEM.2.4.2.0\BUILD\NATIVE\../..//BUILD/NATIVE/INCLUDE/" /I"TMX-PARSER\INCLUDE" /Zi /nologo /W3 /WX- /sdl /O2 /Oi /Oy- /GL /D HAS_SFML /D HAS_SFML /D HAS_SFML /D HAS_SFML /D _MBCS /Gm- /EHsc /MD /GS /Gy /fp:precise /Zc:wchar_t /Zc:forScope /Zc:inline /Fo"RELEASE\\" /Fd"RELEASE\VC140.PDB" /Gd /TP /analyze- C:\USERS\USER-PCC\GITREPOS\SHOOTING SLIMES\SHOOTING SLIMES\TERRAIN.CPP
^C:\USERS\USER-PCC\GITREPOS\SHOOTING SLIMES\SHOOTING SLIMES\TEXTUREMANAGER.CPP
/c /I"C:\USERS\USER-PCC\GITREPOS\SHOOTING SLIMES\PACKAGES\SFML-AUDIO.2.4.2.0\BUILD\NATIVE\../..//BUILD/NATIVE/INCLUDE/" /I"C:\USERS\USER-PCC\GITREPOS\SHOOTING SLIMES\PACKAGES\SFML-GRAPHICS.2.4.2.0\BUILD\NATIVE\../..//BUILD/NATIVE/INCLUDE/" /I"C:\USERS\USER-PCC\GITREPOS\SHOOTING SLIMES\PACKAGES\SFML-WINDOW.2.4.2.0\BUILD\NATIVE\../..//BUILD/NATIVE/INCLUDE/" /I"C:\USERS\USER-PCC\GITREPOS\SHOOTING SLIMES\PACKAGES\SFML-SYSTEM.2.4.2.0\BUILD\NATIVE\../..//BUILD/NATIVE/INCLUDE/" /I"TMX-PARSER\INCLUDE" /Zi /nologo /W3 /WX- /sdl /O2 /Oi /Oy- /GL /D HAS_SFML /D HAS_SFML /D HAS_SFML /D HAS_SFML /D _MBCS /Gm- /EHsc /MD /GS /Gy /fp:precise /Zc:wchar_t /Zc:forScope /Zc:inline /Fo"RELEASE\\" /Fd"RELEASE\VC140.PDB" /Gd /TP /analyze- C:\USERS\USER-PCC\GITREPOS\SHOOTING SLIMES\SHOOTING SLIMES\TEXTUREMANAGER.CPP
^C:\USERS\USER-PCC\GITREPOS\SHOOTING SLIMES\SHOOTING SLIMES\TMXMANAGER.CPP
/c /I"C:\USERS\USER-PCC\GITREPOS\SHOOTING SLIMES\PACKAGES\SFML-AUDIO.2.4.2.0\BUILD\NATIVE\../..//BUILD/NATIVE/INCLUDE/" /I"C:\USERS\USER-PCC\GITREPOS\SHOOTING SLIMES\PACKAGES\SFML-GRAPHICS.2.4.2.0\BUILD\NATIVE\../..//BUILD/NATIVE/INCLUDE/" /I"C:\USERS\USER-PCC\GITREPOS\SHOOTING SLIMES\PACKAGES\SFML-WINDOW.2.4.2.0\BUILD\NATIVE\../..//BUILD/NATIVE/INCLUDE/" /I"C:\USERS\USER-PCC\GITREPOS\SHOOTING SLIMES\PACKAGES\SFML-SYSTEM.2.4.2.0\BUILD\NATIVE\../..//BUILD/NATIVE/INCLUDE/" /I"TMX-PARSER\INCLUDE" /Zi /nologo /W3 /WX- /sdl /O2 /Oi /Oy- /GL /D HAS_SFML /D HAS_SFML /D HAS_SFML /D HAS_SFML /D _MBCS /Gm- /EHsc /MD /GS /Gy /fp:precise /Zc:wchar_t /Zc:forScope /Zc:inline /Fo"RELEASE\\" /Fd"RELEASE\VC140.PDB" /Gd /TP /analyze- C:\USERS\USER-PCC\GITREPOS\SHOOTING SLIMES\SHOOTING SLIMES\TMXMANAGER.CPP
^C:\USERS\USER-PCC\GITREPOS\SHOOTING SLIMES\SHOOTING SLIMES\GUN.CPP
/c /I"C:\USERS\USER-PCC\GITREPOS\SHOOTING SLIMES\PACKAGES\SFML-AUDIO.2.4.2.0\BUILD\NATIVE\../..//BUILD/NATIVE/INCLUDE/" /I"C:\USERS\USER-PCC\GITREPOS\SHOOTING SLIMES\PACKAGES\SFML-GRAPHICS.2.4.2.0\BUILD\NATIVE\../..//BUILD/NATIVE/INCLUDE/" /I"C:\USERS\USER-PCC\GITREPOS\SHOOTING SLIMES\PACKAGES\SFML-WINDOW.2.4.2.0\BUILD\NATIVE\../..//BUILD/NATIVE/INCLUDE/" /I"C:\USERS\USER-PCC\GITREPOS\SHOOTING SLIMES\PACKAGES\SFML-SYSTEM.2.4.2.0\BUILD\NATIVE\../..//BUILD/NATIVE/INCLUDE/" /I"TMX-PARSER\INCLUDE" /Zi /nologo /W3 /WX- /sdl /O2 /Oi /Oy- /GL /D HAS_SFML /D HAS_SFML /D HAS_SFML /D HAS_SFML /D _MBCS /Gm- /EHsc /MD /GS /Gy /fp:precise /Zc:wchar_t /Zc:forScope /Zc:inline /Fo"RELEASE\\" /Fd"RELEASE\VC140.PDB" /Gd /TP /analyze- C:\USERS\USER-PCC\GITREPOS\SHOOTING SLIMES\SHOOTING SLIMES\GUN.CPP
