^C:\USERS\USER-PCC\GITREPOS\SHOOTING SLIMES\SHOOTING SLIMES\COLLIDER.CPP|C:\USERS\USER-PCC\GITREPOS\SHOOTING SLIMES\SHOOTING SLIMES\ENGINE.CPP|C:\USERS\USER-PCC\GITREPOS\SHOOTING SLIMES\SHOOTING SLIMES\ENTITYMANAGER.CPP|C:\USERS\USER-PCC\GITREPOS\SHOOTING SLIMES\SHOOTING SLIMES\GAME.CPP|C:\USERS\USER-PCC\GITREPOS\SHOOTING SLIMES\SHOOTING SLIMES\QUADTREE.CPP|C:\USERS\USER-PCC\GITREPOS\SHOOTING SLIMES\SHOOTING SLIMES\TERRAIN.CPP
C:\USERS\USER-PCC\GITREPOS\SHOOTING SLIMES\SHOOTING SLIMES\RELEASE\VC140.PDB
C:\USERS\USER-PCC\GITREPOS\SHOOTING SLIMES\SHOOTING SLIMES\RELEASE\TERRAIN.OBJ
C:\USERS\USER-PCC\GITREPOS\SHOOTING SLIMES\SHOOTING SLIMES\RELEASE\QUADTREE.OBJ
C:\USERS\USER-PCC\GITREPOS\SHOOTING SLIMES\SHOOTING SLIMES\RELEASE\GAME.OBJ
C:\USERS\USER-PCC\GITREPOS\SHOOTING SLIMES\SHOOTING SLIMES\RELEASE\ENTITYMANAGER.OBJ
C:\USERS\USER-PCC\GITREPOS\SHOOTING SLIMES\SHOOTING SLIMES\RELEASE\ENGINE.OBJ
C:\USERS\USER-PCC\GITREPOS\SHOOTING SLIMES\SHOOTING SLIMES\RELEASE\COLLIDER.OBJ
^C:\USERS\USER-PCC\GITREPOS\SHOOTING SLIMES\SHOOTING SLIMES\CHARACTER.CPP|C:\USERS\USER-PCC\GITREPOS\SHOOTING SLIMES\SHOOTING SLIMES\COLLIDER.CPP|C:\USERS\USER-PCC\GITREPOS\SHOOTING SLIMES\SHOOTING SLIMES\ENGINE.CPP|C:\USERS\USER-PCC\GITREPOS\SHOOTING SLIMES\SHOOTING SLIMES\ENTITY.CPP|C:\USERS\USER-PCC\GITREPOS\SHOOTING SLIMES\SHOOTING SLIMES\ENTITYMANAGER.CPP|C:\USERS\USER-PCC\GITREPOS\SHOOTING SLIMES\SHOOTING SLIMES\GAME.CPP|C:\USERS\USER-PCC\GITREPOS\SHOOTING SLIMES\SHOOTING SLIMES\MAIN.CPP|C:\USERS\USER-PCC\GITREPOS\SHOOTING SLIMES\SHOOTING SLIMES\MENU.CPP|C:\USERS\USER-PCC\GITREPOS\SHOOTING SLIMES\SHOOTING SLIMES\PLAYER.CPP|C:\USERS\USER-PCC\GITREPOS\SHOOTING SLIMES\SHOOTING SLIMES\QUADTREE.CPP|C:\USERS\USER-PCC\GITREPOS\SHOOTING SLIMES\SHOOTING SLIMES\TERRAIN.CPP|C:\USERS\USER-PCC\GITREPOS\SHOOTING SLIMES\SHOOTING SLIMES\TEXTUREMANAGER.CPP
C:\USERS\USER-PCC\GITREPOS\SHOOTING SLIMES\SHOOTING SLIMES\RELEASE\VC140.PDB
C:\USERS\USER-PCC\GITREPOS\SHOOTING SLIMES\SHOOTING SLIMES\RELEASE\TEXTUREMANAGER.OBJ
C:\USERS\USER-PCC\GITREPOS\SHOOTING SLIMES\SHOOTING SLIMES\RELEASE\TERRAIN.OBJ
C:\USERS\USER-PCC\GITREPOS\SHOOTING SLIMES\SHOOTING SLIMES\RELEASE\QUADTREE.OBJ
C:\USERS\USER-PCC\GITREPOS\SHOOTING SLIMES\SHOOTING SLIMES\RELEASE\PLAYER.OBJ
C:\USERS\USER-PCC\GITREPOS\SHOOTING SLIMES\SHOOTING SLIMES\RELEASE\MENU.OBJ
C:\USERS\USER-PCC\GITREPOS\SHOOTING SLIMES\SHOOTING SLIMES\RELEASE\MAIN.OBJ
C:\USERS\USER-PCC\GITREPOS\SHOOTING SLIMES\SHOOTING SLIMES\RELEASE\GAME.OBJ
C:\USERS\USER-PCC\GITREPOS\SHOOTING SLIMES\SHOOTING SLIMES\RELEASE\ENTITYMANAGER.OBJ
C:\USERS\USER-PCC\GITREPOS\SHOOTING SLIMES\SHOOTING SLIMES\RELEASE\ENTITY.OBJ
C:\USERS\USER-PCC\GITREPOS\SHOOTING SLIMES\SHOOTING SLIMES\RELEASE\ENGINE.OBJ
C:\USERS\USER-PCC\GITREPOS\SHOOTING SLIMES\SHOOTING SLIMES\RELEASE\COLLIDER.OBJ
C:\USERS\USER-PCC\GITREPOS\SHOOTING SLIMES\SHOOTING SLIMES\RELEASE\CHARACTER.OBJ
^C:\USERS\USER-PCC\GITREPOS\SHOOTING SLIMES\SHOOTING SLIMES\MAIN.CPP
C:\USERS\USER-PCC\GITREPOS\SHOOTING SLIMES\SHOOTING SLIMES\RELEASE\VC140.PDB
^C:\USERS\USER-PCC\GITREPOS\SHOOTING SLIMES\SHOOTING SLIMES\CHARACTER.CPP|C:\USERS\USER-PCC\GITREPOS\SHOOTING SLIMES\SHOOTING SLIMES\COLLIDER.CPP|C:\USERS\USER-PCC\GITREPOS\SHOOTING SLIMES\SHOOTING SLIMES\ENGINE.CPP|C:\USERS\USER-PCC\GITREPOS\SHOOTING SLIMES\SHOOTING SLIMES\ENTITY.CPP|C:\USERS\USER-PCC\GITREPOS\SHOOTING SLIMES\SHOOTING SLIMES\ENTITYMANAGER.CPP|C:\USERS\USER-PCC\GITREPOS\SHOOTING SLIMES\SHOOTING SLIMES\FONTMANAGER.CPP|C:\USERS\USER-PCC\GITREPOS\SHOOTING SLIMES\SHOOTING SLIMES\GAME.CPP|C:\USERS\USER-PCC\GITREPOS\SHOOTING SLIMES\SHOOTING SLIMES\MENU.CPP|C:\USERS\USER-PCC\GITREPOS\SHOOTING SLIMES\SHOOTING SLIMES\PLAYER.CPP|C:\USERS\USER-PCC\GITREPOS\SHOOTING SLIMES\SHOOTING SLIMES\QUADTREE.CPP|C:\USERS\USER-PCC\GITREPOS\SHOOTING SLIMES\SHOOTING SLIMES\TERRAIN.CPP|C:\USERS\USER-PCC\GITREPOS\SHOOTING SLIMES\SHOOTING SLIMES\TEXTUREMANAGER.CPP
C:\USERS\USER-PCC\GITREPOS\SHOOTING SLIMES\SHOOTING SLIMES\RELEASE\VC140.PDB
C:\USERS\USER-PCC\GITREPOS\SHOOTING SLIMES\SHOOTING SLIMES\RELEASE\TEXTUREMANAGER.OBJ
C:\USERS\USER-PCC\GITREPOS\SHOOTING SLIMES\SHOOTING SLIMES\RELEASE\TERRAIN.OBJ
C:\USERS\USER-PCC\GITREPOS\SHOOTING SLIMES\SHOOTING SLIMES\RELEASE\QUADTREE.OBJ
C:\USERS\USER-PCC\GITREPOS\SHOOTING SLIMES\SHOOTING SLIMES\RELEASE\PLAYER.OBJ
C:\USERS\USER-PCC\GITREPOS\SHOOTING SLIMES\SHOOTING SLIMES\RELEASE\MENU.OBJ
C:\USERS\USER-PCC\GITREPOS\SHOOTING SLIMES\SHOOTING SLIMES\RELEASE\GAME.OBJ
C:\USERS\USER-PCC\GITREPOS\SHOOTING SLIMES\SHOOTING SLIMES\RELEASE\FONTMANAGER.OBJ
C:\USERS\USER-PCC\GITREPOS\SHOOTING SLIMES\SHOOTING SLIMES\RELEASE\ENTITYMANAGER.OBJ
C:\USERS\USER-PCC\GITREPOS\SHOOTING SLIMES\SHOOTING SLIMES\RELEASE\ENTITY.OBJ
C:\USERS\USER-PCC\GITREPOS\SHOOTING SLIMES\SHOOTING SLIMES\RELEASE\ENGINE.OBJ
C:\USERS\USER-PCC\GITREPOS\SHOOTING SLIMES\SHOOTING SLIMES\RELEASE\COLLIDER.OBJ
C:\USERS\USER-PCC\GITREPOS\SHOOTING SLIMES\SHOOTING SLIMES\RELEASE\CHARACTER.OBJ
^C:\USERS\USER-PCC\GITREPOS\SHOOTING SLIMES\SHOOTING SLIMES\CHARACTER.CPP|C:\USERS\USER-PCC\GITREPOS\SHOOTING SLIMES\SHOOTING SLIMES\COLLIDER.CPP|C:\USERS\USER-PCC\GITREPOS\SHOOTING SLIMES\SHOOTING SLIMES\ENEMY.CPP|C:\USERS\USER-PCC\GITREPOS\SHOOTING SLIMES\SHOOTING SLIMES\ENGINE.CPP|C:\USERS\USER-PCC\GITREPOS\SHOOTING SLIMES\SHOOTING SLIMES\ENTITY.CPP|C:\USERS\USER-PCC\GITREPOS\SHOOTING SLIMES\SHOOTING SLIMES\ENTITYMANAGER.CPP|C:\USERS\USER-PCC\GITREPOS\SHOOTING SLIMES\SHOOTING SLIMES\GAME.CPP|C:\USERS\USER-PCC\GITREPOS\SHOOTING SLIMES\SHOOTING SLIMES\MENU.CPP|C:\USERS\USER-PCC\GITREPOS\SHOOTING SLIMES\SHOOTING SLIMES\PLAYER.CPP|C:\USERS\USER-PCC\GITREPOS\SHOOTING SLIMES\SHOOTING SLIMES\QUADTREE.CPP|C:\USERS\USER-PCC\GITREPOS\SHOOTING SLIMES\SHOOTING SLIMES\TERRAIN.CPP|C:\USERS\USER-PCC\GITREPOS\SHOOTING SLIMES\SHOOTING SLIMES\TEXTUREMANAGER.CPP
C:\USERS\USER-PCC\GITREPOS\SHOOTING SLIMES\SHOOTING SLIMES\RELEASE\VC140.PDB
C:\USERS\USER-PCC\GITREPOS\SHOOTING SLIMES\SHOOTING SLIMES\RELEASE\TEXTUREMANAGER.OBJ
C:\USERS\USER-PCC\GITREPOS\SHOOTING SLIMES\SHOOTING SLIMES\RELEASE\TERRAIN.OBJ
C:\USERS\USER-PCC\GITREPOS\SHOOTING SLIMES\SHOOTING SLIMES\RELEASE\QUADTREE.OBJ
C:\USERS\USER-PCC\GITREPOS\SHOOTING SLIMES\SHOOTING SLIMES\RELEASE\PLAYER.OBJ
C:\USERS\USER-PCC\GITREPOS\SHOOTING SLIMES\SHOOTING SLIMES\RELEASE\MENU.OBJ
C:\USERS\USER-PCC\GITREPOS\SHOOTING SLIMES\SHOOTING SLIMES\RELEASE\GAME.OBJ
C:\USERS\USER-PCC\GITREPOS\SHOOTING SLIMES\SHOOTING SLIMES\RELEASE\ENTITYMANAGER.OBJ
C:\USERS\USER-PCC\GITREPOS\SHOOTING SLIMES\SHOOTING SLIMES\RELEASE\ENTITY.OBJ
C:\USERS\USER-PCC\GITREPOS\SHOOTING SLIMES\SHOOTING SLIMES\RELEASE\ENGINE.OBJ
C:\USERS\USER-PCC\GITREPOS\SHOOTING SLIMES\SHOOTING SLIMES\RELEASE\ENEMY.OBJ
C:\USERS\USER-PCC\GITREPOS\SHOOTING SLIMES\SHOOTING SLIMES\RELEASE\COLLIDER.OBJ
C:\USERS\USER-PCC\GITREPOS\SHOOTING SLIMES\SHOOTING SLIMES\RELEASE\CHARACTER.OBJ
^C:\USERS\USER-PCC\GITREPOS\SHOOTING SLIMES\SHOOTING SLIMES\CHARACTER.CPP|C:\USERS\USER-PCC\GITREPOS\SHOOTING SLIMES\SHOOTING SLIMES\COLLIDER.CPP|C:\USERS\USER-PCC\GITREPOS\SHOOTING SLIMES\SHOOTING SLIMES\ENEMY.CPP|C:\USERS\USER-PCC\GITREPOS\SHOOTING SLIMES\SHOOTING SLIMES\ENGINE.CPP|C:\USERS\USER-PCC\GITREPOS\SHOOTING SLIMES\SHOOTING SLIMES\ENTITY.CPP|C:\USERS\USER-PCC\GITREPOS\SHOOTING SLIMES\SHOOTING SLIMES\ENTITYMANAGER.CPP|C:\USERS\USER-PCC\GITREPOS\SHOOTING SLIMES\SHOOTING SLIMES\FONTMANAGER.CPP|C:\USERS\USER-PCC\GITREPOS\SHOOTING SLIMES\SHOOTING SLIMES\GAME.CPP|C:\USERS\USER-PCC\GITREPOS\SHOOTING SLIMES\SHOOTING SLIMES\GUN.CPP|C:\USERS\USER-PCC\GITREPOS\SHOOTING SLIMES\SHOOTING SLIMES\MENU.CPP|C:\USERS\USER-PCC\GITREPOS\SHOOTING SLIMES\SHOOTING SLIMES\PLAYER.CPP|C:\USERS\USER-PCC\GITREPOS\SHOOTING SLIMES\SHOOTING SLIMES\PROJECTILE.CPP|C:\USERS\USER-PCC\GITREPOS\SHOOTING SLIMES\SHOOTING SLIMES\QUADTREE.CPP|C:\USERS\USER-PCC\GITREPOS\SHOOTING SLIMES\SHOOTING SLIMES\TERRAIN.CPP|C:\USERS\USER-PCC\GITREPOS\SHOOTING SLIMES\SHOOTING SLIMES\TEXTUREMANAGER.CPP|C:\USERS\USER-PCC\GITREPOS\SHOOTING SLIMES\SHOOTING SLIMES\TMXMANAGER.CPP|C:\USERS\USER-PCC\GITREPOS\SHOOTING SLIMES\SHOOTING SLIMES\WEAPONPROPERTIES.CPP
C:\USERS\USER-PCC\GITREPOS\SHOOTING SLIMES\SHOOTING SLIMES\RELEASE\VC140.PDB
C:\USERS\USER-PCC\GITREPOS\SHOOTING SLIMES\SHOOTING SLIMES\RELEASE\WEAPONPROPERTIES.OBJ
C:\USERS\USER-PCC\GITREPOS\SHOOTING SLIMES\SHOOTING SLIMES\RELEASE\GUN.OBJ
C:\USERS\USER-PCC\GITREPOS\SHOOTING SLIMES\SHOOTING SLIMES\RELEASE\TMXMANAGER.OBJ
C:\USERS\USER-PCC\GITREPOS\SHOOTING SLIMES\SHOOTING SLIMES\RELEASE\TEXTUREMANAGER.OBJ
C:\USERS\USER-PCC\GITREPOS\SHOOTING SLIMES\SHOOTING SLIMES\RELEASE\TERRAIN.OBJ
C:\USERS\USER-PCC\GITREPOS\SHOOTING SLIMES\SHOOTING SLIMES\RELEASE\QUADTREE.OBJ
C:\USERS\USER-PCC\GITREPOS\SHOOTING SLIMES\SHOOTING SLIMES\RELEASE\PROJECTILE.OBJ
C:\USERS\USER-PCC\GITREPOS\SHOOTING SLIMES\SHOOTING SLIMES\RELEASE\PLAYER.OBJ
C:\USERS\USER-PCC\GITREPOS\SHOOTING SLIMES\SHOOTING SLIMES\RELEASE\MENU.OBJ
C:\USERS\USER-PCC\GITREPOS\SHOOTING SLIMES\SHOOTING SLIMES\RELEASE\GAME.OBJ
C:\USERS\USER-PCC\GITREPOS\SHOOTING SLIMES\SHOOTING SLIMES\RELEASE\FONTMANAGER.OBJ
C:\USERS\USER-PCC\GITREPOS\SHOOTING SLIMES\SHOOTING SLIMES\RELEASE\ENTITYMANAGER.OBJ
C:\USERS\USER-PCC\GITREPOS\SHOOTING SLIMES\SHOOTING SLIMES\RELEASE\ENTITY.OBJ
C:\USERS\USER-PCC\GITREPOS\SHOOTING SLIMES\SHOOTING SLIMES\RELEASE\ENGINE.OBJ
C:\USERS\USER-PCC\GITREPOS\SHOOTING SLIMES\SHOOTING SLIMES\RELEASE\ENEMY.OBJ
C:\USERS\USER-PCC\GITREPOS\SHOOTING SLIMES\SHOOTING SLIMES\RELEASE\COLLIDER.OBJ
C:\USERS\USER-PCC\GITREPOS\SHOOTING SLIMES\SHOOTING SLIMES\RELEASE\CHARACTER.OBJ
^C:\USERS\USER-PCC\GITREPOS\SHOOTING SLIMES\SHOOTING SLIMES\WEAPONPROPERTIES.CPP
C:\USERS\USER-PCC\GITREPOS\SHOOTING SLIMES\SHOOTING SLIMES\RELEASE\VC140.PDB
^C:\USERS\USER-PCC\GITREPOS\SHOOTING SLIMES\SHOOTING SLIMES\COLLIDER.CPP|C:\USERS\USER-PCC\GITREPOS\SHOOTING SLIMES\SHOOTING SLIMES\ENGINE.CPP|C:\USERS\USER-PCC\GITREPOS\SHOOTING SLIMES\SHOOTING SLIMES\ENTITYMANAGER.CPP|C:\USERS\USER-PCC\GITREPOS\SHOOTING SLIMES\SHOOTING SLIMES\GAME.CPP|C:\USERS\USER-PCC\GITREPOS\SHOOTING SLIMES\SHOOTING SLIMES\GUN.CPP|C:\USERS\USER-PCC\GITREPOS\SHOOTING SLIMES\SHOOTING SLIMES\PLAYER.CPP
C:\USERS\USER-PCC\GITREPOS\SHOOTING SLIMES\SHOOTING SLIMES\RELEASE\VC140.PDB
C:\USERS\USER-PCC\GITREPOS\SHOOTING SLIMES\SHOOTING SLIMES\RELEASE\PLAYER.OBJ
C:\USERS\USER-PCC\GITREPOS\SHOOTING SLIMES\SHOOTING SLIMES\RELEASE\GUN.OBJ
C:\USERS\USER-PCC\GITREPOS\SHOOTING SLIMES\SHOOTING SLIMES\RELEASE\GAME.OBJ
C:\USERS\USER-PCC\GITREPOS\SHOOTING SLIMES\SHOOTING SLIMES\RELEASE\ENTITYMANAGER.OBJ
C:\USERS\USER-PCC\GITREPOS\SHOOTING SLIMES\SHOOTING SLIMES\RELEASE\ENGINE.OBJ
C:\USERS\USER-PCC\GITREPOS\SHOOTING SLIMES\SHOOTING SLIMES\RELEASE\COLLIDER.OBJ
^C:\USERS\USER-PCC\GITREPOS\SHOOTING SLIMES\SHOOTING SLIMES\AUDIOMANAGER.CPP|C:\USERS\USER-PCC\GITREPOS\SHOOTING SLIMES\SHOOTING SLIMES\CHARACTER.CPP|C:\USERS\USER-PCC\GITREPOS\SHOOTING SLIMES\SHOOTING SLIMES\COLLIDER.CPP|C:\USERS\USER-PCC\GITREPOS\SHOOTING SLIMES\SHOOTING SLIMES\COLLISIONPROPERTIES.CPP|C:\USERS\USER-PCC\GITREPOS\SHOOTING SLIMES\SHOOTING SLIMES\ENEMY.CPP|C:\USERS\USER-PCC\GITREPOS\SHOOTING SLIMES\SHOOTING SLIMES\ENGINE.CPP|C:\USERS\USER-PCC\GITREPOS\SHOOTING SLIMES\SHOOTING SLIMES\ENTITY.CPP|C:\USERS\USER-PCC\GITREPOS\SHOOTING SLIMES\SHOOTING SLIMES\ENTITYMANAGER.CPP|C:\USERS\USER-PCC\GITREPOS\SHOOTING SLIMES\SHOOTING SLIMES\FONTMANAGER.CPP|C:\USERS\USER-PCC\GITREPOS\SHOOTING SLIMES\SHOOTING SLIMES\GAME.CPP|C:\USERS\USER-PCC\GITREPOS\SHOOTING SLIMES\SHOOTING SLIMES\GUN.CPP|C:\USERS\USER-PCC\GITREPOS\SHOOTING SLIMES\SHOOTING SLIMES\MENU.CPP|C:\USERS\USER-PCC\GITREPOS\SHOOTING SLIMES\SHOOTING SLIMES\PLAYER.CPP|C:\USERS\USER-PCC\GITREPOS\SHOOTING SLIMES\SHOOTING SLIMES\PROJECTILE.CPP|C:\USERS\USER-PCC\GITREPOS\SHOOTING SLIMES\SHOOTING SLIMES\QUADTREE.CPP|C:\USERS\USER-PCC\GITREPOS\SHOOTING SLIMES\SHOOTING SLIMES\TERRAIN.CPP|C:\USERS\USER-PCC\GITREPOS\SHOOTING SLIMES\SHOOTING SLIMES\TEXTUREMANAGER.CPP|C:\USERS\USER-PCC\GITREPOS\SHOOTING SLIMES\SHOOTING SLIMES\TMXMANAGER.CPP
C:\USERS\USER-PCC\GITREPOS\SHOOTING SLIMES\SHOOTING SLIMES\RELEASE\VC140.PDB
C:\USERS\USER-PCC\GITREPOS\SHOOTING SLIMES\SHOOTING SLIMES\RELEASE\GUN.OBJ
C:\USERS\USER-PCC\GITREPOS\SHOOTING SLIMES\SHOOTING SLIMES\RELEASE\TMXMANAGER.OBJ
C:\USERS\USER-PCC\GITREPOS\SHOOTING SLIMES\SHOOTING SLIMES\RELEASE\TEXTUREMANAGER.OBJ
C:\USERS\USER-PCC\GITREPOS\SHOOTING SLIMES\SHOOTING SLIMES\RELEASE\TERRAIN.OBJ
C:\USERS\USER-PCC\GITREPOS\SHOOTING SLIMES\SHOOTING SLIMES\RELEASE\QUADTREE.OBJ
C:\USERS\USER-PCC\GITREPOS\SHOOTING SLIMES\SHOOTING SLIMES\RELEASE\PROJECTILE.OBJ
C:\USERS\USER-PCC\GITREPOS\SHOOTING SLIMES\SHOOTING SLIMES\RELEASE\PLAYER.OBJ
C:\USERS\USER-PCC\GITREPOS\SHOOTING SLIMES\SHOOTING SLIMES\RELEASE\MENU.OBJ
C:\USERS\USER-PCC\GITREPOS\SHOOTING SLIMES\SHOOTING SLIMES\RELEASE\GAME.OBJ
C:\USERS\USER-PCC\GITREPOS\SHOOTING SLIMES\SHOOTING SLIMES\RELEASE\FONTMANAGER.OBJ
C:\USERS\USER-PCC\GITREPOS\SHOOTING SLIMES\SHOOTING SLIMES\RELEASE\ENTITYMANAGER.OBJ
C:\USERS\USER-PCC\GITREPOS\SHOOTING SLIMES\SHOOTING SLIMES\RELEASE\ENTITY.OBJ
C:\USERS\USER-PCC\GITREPOS\SHOOTING SLIMES\SHOOTING SLIMES\RELEASE\ENGINE.OBJ
C:\USERS\USER-PCC\GITREPOS\SHOOTING SLIMES\SHOOTING SLIMES\RELEASE\ENEMY.OBJ
C:\USERS\USER-PCC\GITREPOS\SHOOTING SLIMES\SHOOTING SLIMES\RELEASE\COLLISIONPROPERTIES.OBJ
C:\USERS\USER-PCC\GITREPOS\SHOOTING SLIMES\SHOOTING SLIMES\RELEASE\COLLIDER.OBJ
C:\USERS\USER-PCC\GITREPOS\SHOOTING SLIMES\SHOOTING SLIMES\RELEASE\CHARACTER.OBJ
C:\USERS\USER-PCC\GITREPOS\SHOOTING SLIMES\SHOOTING SLIMES\RELEASE\AUDIOMANAGER.OBJ
^C:\USERS\USER-PCC\GITREPOS\SHOOTING SLIMES\SHOOTING SLIMES\AUDIOMANAGER.CPP
C:\USERS\USER-PCC\GITREPOS\SHOOTING SLIMES\SHOOTING SLIMES\RELEASE\VC140.PDB
^C:\USERS\USER-PCC\GITREPOS\SHOOTING SLIMES\SHOOTING SLIMES\CHARACTER.CPP
C:\USERS\USER-PCC\GITREPOS\SHOOTING SLIMES\SHOOTING SLIMES\RELEASE\VC140.PDB
^C:\USERS\USER-PCC\GITREPOS\SHOOTING SLIMES\SHOOTING SLIMES\COLLIDER.CPP
C:\USERS\USER-PCC\GITREPOS\SHOOTING SLIMES\SHOOTING SLIMES\RELEASE\VC140.PDB
^C:\USERS\USER-PCC\GITREPOS\SHOOTING SLIMES\SHOOTING SLIMES\COLLISIONPROPERTIES.CPP
C:\USERS\USER-PCC\GITREPOS\SHOOTING SLIMES\SHOOTING SLIMES\RELEASE\VC140.PDB
^C:\USERS\USER-PCC\GITREPOS\SHOOTING SLIMES\SHOOTING SLIMES\ENEMY.CPP
C:\USERS\USER-PCC\GITREPOS\SHOOTING SLIMES\SHOOTING SLIMES\RELEASE\VC140.PDB
^C:\USERS\USER-PCC\GITREPOS\SHOOTING SLIMES\SHOOTING SLIMES\ENGINE.CPP
C:\USERS\USER-PCC\GITREPOS\SHOOTING SLIMES\SHOOTING SLIMES\RELEASE\VC140.PDB
^C:\USERS\USER-PCC\GITREPOS\SHOOTING SLIMES\SHOOTING SLIMES\ENTITY.CPP
C:\USERS\USER-PCC\GITREPOS\SHOOTING SLIMES\SHOOTING SLIMES\RELEASE\VC140.PDB
^C:\USERS\USER-PCC\GITREPOS\SHOOTING SLIMES\SHOOTING SLIMES\ENTITYMANAGER.CPP
C:\USERS\USER-PCC\GITREPOS\SHOOTING SLIMES\SHOOTING SLIMES\RELEASE\VC140.PDB
^C:\USERS\USER-PCC\GITREPOS\SHOOTING SLIMES\SHOOTING SLIMES\FONTMANAGER.CPP
C:\USERS\USER-PCC\GITREPOS\SHOOTING SLIMES\SHOOTING SLIMES\RELEASE\VC140.PDB
^C:\USERS\USER-PCC\GITREPOS\SHOOTING SLIMES\SHOOTING SLIMES\GAME.CPP
C:\USERS\USER-PCC\GITREPOS\SHOOTING SLIMES\SHOOTING SLIMES\RELEASE\VC140.PDB
^C:\USERS\USER-PCC\GITREPOS\SHOOTING SLIMES\SHOOTING SLIMES\MENU.CPP
C:\USERS\USER-PCC\GITREPOS\SHOOTING SLIMES\SHOOTING SLIMES\RELEASE\VC140.PDB
^C:\USERS\USER-PCC\GITREPOS\SHOOTING SLIMES\SHOOTING SLIMES\PLAYER.CPP
C:\USERS\USER-PCC\GITREPOS\SHOOTING SLIMES\SHOOTING SLIMES\RELEASE\VC140.PDB
^C:\USERS\USER-PCC\GITREPOS\SHOOTING SLIMES\SHOOTING SLIMES\PROJECTILE.CPP
C:\USERS\USER-PCC\GITREPOS\SHOOTING SLIMES\SHOOTING SLIMES\RELEASE\VC140.PDB
^C:\USERS\USER-PCC\GITREPOS\SHOOTING SLIMES\SHOOTING SLIMES\QUADTREE.CPP
C:\USERS\USER-PCC\GITREPOS\SHOOTING SLIMES\SHOOTING SLIMES\RELEASE\VC140.PDB
^C:\USERS\USER-PCC\GITREPOS\SHOOTING SLIMES\SHOOTING SLIMES\TERRAIN.CPP
C:\USERS\USER-PCC\GITREPOS\SHOOTING SLIMES\SHOOTING SLIMES\RELEASE\VC140.PDB
^C:\USERS\USER-PCC\GITREPOS\SHOOTING SLIMES\SHOOTING SLIMES\TEXTUREMANAGER.CPP
C:\USERS\USER-PCC\GITREPOS\SHOOTING SLIMES\SHOOTING SLIMES\RELEASE\VC140.PDB
^C:\USERS\USER-PCC\GITREPOS\SHOOTING SLIMES\SHOOTING SLIMES\TMXMANAGER.CPP
C:\USERS\USER-PCC\GITREPOS\SHOOTING SLIMES\SHOOTING SLIMES\RELEASE\VC140.PDB
^C:\USERS\USER-PCC\GITREPOS\SHOOTING SLIMES\SHOOTING SLIMES\GUN.CPP
C:\USERS\USER-PCC\GITREPOS\SHOOTING SLIMES\SHOOTING SLIMES\RELEASE\VC140.PDB
