^C:\Users\USER-PCC\GitRepos\Shooting slimes\Shooting slimes\Shooting slimes.vcxproj
C:\Users\USER-PCC\GitRepos\Shooting slimes\Release\Shooting slimes.lib
C:\Users\USER-PCC\GitRepos\Shooting slimes\Release\Shooting slimes.exp
^C:\Users\USER-PCC\GitRepos\Shooting slimes\Shooting slimes\Shooting slimes.vcxproj
C:\Users\USER-PCC\GitRepos\Shooting slimes\Release\Shooting slimes.lib
C:\Users\USER-PCC\GitRepos\Shooting slimes\Release\Shooting slimes.exp
^C:\Users\USER-PCC\GitRepos\Shooting slimes\Shooting slimes\Shooting slimes.vcxproj
C:\Users\USER-PCC\GitRepos\Shooting slimes\Release\Shooting slimes.lib
C:\Users\USER-PCC\GitRepos\Shooting slimes\Release\Shooting slimes.exp
^C:\Users\USER-PCC\GitRepos\Shooting slimes\Shooting slimes\Shooting slimes.vcxproj
C:\Users\USER-PCC\GitRepos\Shooting slimes\Release\Shooting slimes.lib
C:\Users\USER-PCC\GitRepos\Shooting slimes\Release\Shooting slimes.exp
^C:\Users\USER-PCC\GitRepos\Shooting slimes\Shooting slimes\Shooting slimes.vcxproj
C:\Users\USER-PCC\GitRepos\Shooting slimes\Release\Shooting slimes.lib
C:\Users\USER-PCC\GitRepos\Shooting slimes\Release\Shooting slimes.exp
^C:\Users\USER-PCC\GitRepos\Shooting slimes\Shooting slimes\Shooting slimes.vcxproj
C:\Users\USER-PCC\GitRepos\Shooting slimes\Release\Shooting slimes.lib
C:\Users\USER-PCC\GitRepos\Shooting slimes\Release\Shooting slimes.exp
^C:\Users\USER-PCC\GitRepos\Shooting slimes\Shooting slimes\Shooting slimes.vcxproj
C:\Users\USER-PCC\GitRepos\Shooting slimes\Release\Shooting slimes.lib
C:\Users\USER-PCC\GitRepos\Shooting slimes\Release\Shooting slimes.exp
^C:\Users\USER-PCC\GitRepos\Shooting slimes\Shooting slimes\Shooting slimes.vcxproj
C:\Users\USER-PCC\GitRepos\Shooting slimes\Release\Shooting slimes.lib
C:\Users\USER-PCC\GitRepos\Shooting slimes\Release\Shooting slimes.exp
^C:\Users\USER-PCC\GitRepos\Shooting slimes\Shooting slimes\Shooting slimes.vcxproj
C:\Users\USER-PCC\GitRepos\Shooting slimes\Release\Shooting slimes.lib
C:\Users\USER-PCC\GitRepos\Shooting slimes\Release\Shooting slimes.exp
