^C:\USERS\USER-PCC\GITREPOS\SHOOTING SLIMES\SHOOTING SLIMES\DEBUG\AUDIOMANAGER.OBJ|C:\USERS\USER-PCC\GITREPOS\SHOOTING SLIMES\SHOOTING SLIMES\DEBUG\CHARACTER.OBJ|C:\USERS\USER-PCC\GITREPOS\SHOOTING SLIMES\SHOOTING SLIMES\DEBUG\COLLIDER.OBJ|C:\USERS\USER-PCC\GITREPOS\SHOOTING SLIMES\SHOOTING SLIMES\DEBUG\COLLISIONPROPERTIES.OBJ|C:\USERS\USER-PCC\GITREPOS\SHOOTING SLIMES\SHOOTING SLIMES\DEBUG\ENEMY.OBJ|C:\USERS\USER-PCC\GITREPOS\SHOOTING SLIMES\SHOOTING SLIMES\DEBUG\ENGINE.OBJ|C:\USERS\USER-PCC\GITREPOS\SHOOTING SLIMES\SHOOTING SLIMES\DEBUG\ENTITY.OBJ|C:\USERS\USER-PCC\GITREPOS\SHOOTING SLIMES\SHOOTING SLIMES\DEBUG\ENTITYMANAGER.OBJ|C:\USERS\USER-PCC\GITREPOS\SHOOTING SLIMES\SHOOTING SLIMES\DEBUG\FONTMANAGER.OBJ|C:\USERS\USER-PCC\GITREPOS\SHOOTING SLIMES\SHOOTING SLIMES\DEBUG\GAME.OBJ|C:\USERS\USER-PCC\GITREPOS\SHOOTING SLIMES\SHOOTING SLIMES\DEBUG\GUN.OBJ|C:\USERS\USER-PCC\GITREPOS\SHOOTING SLIMES\SHOOTING SLIMES\DEBUG\MAIN.OBJ|C:\USERS\USER-PCC\GITREPOS\SHOOTING SLIMES\SHOOTING SLIMES\DEBUG\MENU.OBJ|C:\USERS\USER-PCC\GITREPOS\SHOOTING SLIMES\SHOOTING SLIMES\DEBUG\PLAYER.OBJ|C:\USERS\USER-PCC\GITREPOS\SHOOTING SLIMES\SHOOTING SLIMES\DEBUG\PROJECTILE.OBJ|C:\USERS\USER-PCC\GITREPOS\SHOOTING SLIMES\SHOOTING SLIMES\DEBUG\QUADTREE.OBJ|C:\USERS\USER-PCC\GITREPOS\SHOOTING SLIMES\SHOOTING SLIMES\DEBUG\SHOOTING SLIMES.RES|C:\USERS\USER-PCC\GITREPOS\SHOOTING SLIMES\SHOOTING SLIMES\DEBUG\TERRAIN.OBJ|C:\USERS\USER-PCC\GITREPOS\SHOOTING SLIMES\SHOOTING SLIMES\DEBUG\TEXTUREMANAGER.OBJ|C:\USERS\USER-PCC\GITREPOS\SHOOTING SLIMES\SHOOTING SLIMES\DEBUG\TMXMANAGER.OBJ|C:\USERS\USER-PCC\GITREPOS\SHOOTING SLIMES\SHOOTING SLIMES\DEBUG\WEAPONPROPERTIES.OBJ
C:\USERS\USER-PCC\GITREPOS\SHOOTING SLIMES\DEBUG\SHOOTING SLIMES.ILK
C:\USERS\USER-PCC\GITREPOS\SHOOTING SLIMES\DEBUG\SHOOTING SLIMES.EXE
C:\USERS\USER-PCC\GITREPOS\SHOOTING SLIMES\DEBUG\SHOOTING SLIMES.PDB
